[
  {
    "Name": "Samsung",
    "Price": "20200",
    "Count": "3"
  },
  {
    "Name": "Iphone",
    "Price": "35000",
    "Count": "2"
  },
  {
    "Name": "Oppo",
    "Price": "16000",
    "Count": "5"
  },
  {
    "Name": "Asus",
    "Price": "14000",
    "Count": "5"
  },
  {
    "Name": "Nokia",
    "Price": "19599",
    "Count": "9"
  }
]